…
We only want the columns of interest (name, followers_count, friends_count, statuses_count and favourites_count) and then we want the data in long format. To do this we’re going to use select() and gather()

(lead_r_info = lead_r_info %>%  
  select(name, followers_count, friends_count, statuses_count, favourites_count, screen_name) %>% 
  gather(type, value, -name, -screen_name))

## # A tibble: 40 x 4
##    name                 screen_name     type               value
##    <chr>                <chr>           <chr>              <int>
##  1 Donald J. Trump      realDonaldTrump followers_count 48426576
##  2 Pope Francis         Pontifex        followers_count 16858642
##  3 Narendra Modi        narendramodi    followers_count 40710139
##  4 PMO India            PMOIndia        followers_count 25156203
##  5 President Trump      POTUS           followers_count 22324998
##  6 The White House      WhiteHouse      followers_count 16713369
##  7 Recep Tayyip Erdoğan RT_Erdogan      followers_count 12513987
##  8 Sushma Swaraj        SushmaSwaraj    followers_count 11461412
##  9 Joko Widodo          jokowi          followers_count  9693534
## 10 HH Sheikh Mohammed   HHShkMohd       followers_count  8764455
## # ... with 30 more rows
…
