…
speaker_words = speaker_words %>%
  filter(!is_speaker, !is.na(speaker)) %>%
  select(-is_speaker, -gutenberg_id) %>%
  unnest_tokens(word, text) %>%
  anti_join(stop_words, by = "word") 

A further bit of analysis

speaker_words %>%
  count(speaker, word, sort = TRUE) %>%
  bind_tf_idf(word, speaker, n) %>%
  arrange(desc(tf_idf)) %>%
  filter(n >= 5)

## # A tibble: 107 x 6
##    speaker       word         n      tf   idf tf_idf
##    <chr>         <chr>    <int>   <dbl> <dbl>  <dbl>
##  1 PORTER.       knock       10 0.0847  3.09  0.262 
##  2 ALL.          double       6 0.0588  2.40  0.141 
##  3 PORTER.       knocking     6 0.0508  2.40  0.122 
##  4 APPARITION.   macbeth      5 0.143   0.788 0.113 
##  5 LADY MACDUFF. thou         5 0.0394  1.30  0.0512
##  6 PORTER.       sir          5 0.0424  1.15  0.0485
##  7 DUNCAN.       thee         6 0.0270  1.30  0.0351
##  8 FIRST WITCH.  macbeth      7 0.0417  0.788 0.0329
##  9 LADY MACBETH. wouldst      6 0.00825 3.78  0.0312
## 10 MACDUFF.      scotland     8 0.0154  1.99  0.0306
## # ... with 97 more rows
…
