…
Hi all, so given our logo here at Jumping Rivers is a set of lines designed to look like a Gaussian Process, we thought it would be a neat idea to recreate this image in R. To do so we’re going to need a couple packages. We do the usual install.packages() dance (remember this step can be performed in parallel)

install.packages(c("ggplot2", "ggalt", "readr"))

We’re also going to need the data containing the points for the lines and which set of points belongs to which line. There is a Gist available to download via Jumping Rivers. To read in the csv file we’re going to use the raw data link.

(dd = readr::read_csv("https://goo.gl/HzNbAp", col_types = "ddc"))
## # A tibble: 40 x 3
##       x     y type 
##   <dbl> <dbl> <chr>
## 1  36.9  -311 1    
## 2  67.9  -332 1    
## 3 179    -156 1    
## 4 254    -259 1    
## # ... with 36 more rows
…
