…
df
##   X.. X8   X. name
## 1   1  2 0.25    t
## 2   2  4 0.25    h
## 3   3  6 0.25    e
## 4   4  8 0.25    o

Not only does read_csv() return a pretty tibble, it is also much faster. For proof, check out this article by Erwin Kalvelagen. The keen eyes amongst you will have noticed something odd about the variable names… we’ll get on to that soon.

Tibbles vs Data Frames

Did you notice a key difference in the tibble()s and data.frame()s above? Take a look again.

tibble(a = 1:26, b = letters)
## # A tibble: 26 x 2
##       a b    
##   <int> <chr>
## 1     1 a    
## 2     2 b    
## 3     3 c    
## 4     4 d    
## 5     5 e    
## # ... with 21 more rows
…
 options(tibble.print_max = 3, tibble.print_min = 1)

So now if there is more than 3 rows, we print only 1 row. Tibbles of length 3 and 4 would now print as so.

tibble(1:3)
## # A tibble: 3 x 1
##   `1:3`
##   <int>
## 1     1
## 2     2
## 3     3

tibble(1:4)  
## # A tibble: 4 x 1
##   `1:4`
##   <int>
## 1     1
## # ... with 3 more rows
…
